Flow report for IOmg996r
<<<<<<< HEAD
Fri Jul 10 23:39:02 2020
=======
Wed Jul 08 15:27:23 2020
>>>>>>> b1416af4e79fa980f87d88bd1b5cecc2dd498da5
Quartus Prime Version 18.1.0 Build 625 09/12/2018 SJ Lite Edition


---------------------
; Table of Contents ;
---------------------
  1. Legal Notice
  2. Flow Summary
  3. Flow Settings
  4. Flow Non-Default Global Settings
  5. Flow Elapsed Time
  6. Flow OS Summary
  7. Flow Log
  8. Flow Messages
  9. Flow Suppressed Messages



----------------
; Legal Notice ;
----------------
Copyright (C) 2018  Intel Corporation. All rights reserved.
Your use of Intel Corporation's design tools, logic functions 
and other software and tools, and its AMPP partner logic 
functions, and any output files from any of the foregoing 
(including device programming or simulation files), and any 
associated documentation or information are expressly subject 
to the terms and conditions of the Intel Program License 
Subscription Agreement, the Intel Quartus Prime License Agreement,
the Intel FPGA IP License Agreement, or other applicable license
agreement, including, without limitation, that your use is for
the sole purpose of programming logic devices manufactured by
Intel and sold by Intel or its authorized distributors.  Please
refer to the applicable agreement for further details.



+----------------------------------------------------------------------------------+
; Flow Summary                                                                     ;
+------------------------------------+---------------------------------------------+
<<<<<<< HEAD
; Flow Status                        ; Successful - Fri Jul 10 23:39:02 2020       ;
=======
; Flow Status                        ; Successful - Wed Jul 08 15:27:23 2020       ;
>>>>>>> b1416af4e79fa980f87d88bd1b5cecc2dd498da5
; Quartus Prime Version              ; 18.1.0 Build 625 09/12/2018 SJ Lite Edition ;
; Revision Name                      ; IOmg996r                                    ;
; Top-level Entity Name              ; IOmg996r                                    ;
; Family                             ; Cyclone IV E                                ;
; Device                             ; EP4CE6E22C8                                 ;
; Timing Models                      ; Final                                       ;
; Total logic elements               ; 239 / 6,272 ( 4 % )                         ;
;     Total combinational functions  ; 199 / 6,272 ( 3 % )                         ;
;     Dedicated logic registers      ; 162 / 6,272 ( 3 % )                         ;
; Total registers                    ; 162                                         ;
; Total pins                         ; 8 / 92 ( 9 % )                              ;
; Total virtual pins                 ; 0                                           ;
; Total memory bits                  ; 0 / 276,480 ( 0 % )                         ;
; Embedded Multiplier 9-bit elements ; 0 / 30 ( 0 % )                              ;
; Total PLLs                         ; 0 / 2 ( 0 % )                               ;
+------------------------------------+---------------------------------------------+


+-----------------------------------------+
; Flow Settings                           ;
+-------------------+---------------------+
; Option            ; Setting             ;
+-------------------+---------------------+
<<<<<<< HEAD
; Start date & time ; 07/10/2020 23:09:29 ;
=======
; Start date & time ; 07/08/2020 15:26:54 ;
>>>>>>> b1416af4e79fa980f87d88bd1b5cecc2dd498da5
; Main task         ; Compilation         ;
; Revision Name     ; IOmg996r            ;
+-------------------+---------------------+


+-----------------------------------------------------------------------------------------------------------------------------+
; Flow Non-Default Global Settings                                                                                            ;
+-------------------------------------+----------------------------------------+---------------+-------------+----------------+
; Assignment Name                     ; Value                                  ; Default Value ; Entity Name ; Section Id     ;
+-------------------------------------+----------------------------------------+---------------+-------------+----------------+
<<<<<<< HEAD
; COMPILER_SIGNATURE_ID               ; 247207024833534.159441536917724        ; --            ; --          ; --             ;
=======
; COMPILER_SIGNATURE_ID               ; 9447190684413.159421481405328          ; --            ; --          ; --             ;
>>>>>>> b1416af4e79fa980f87d88bd1b5cecc2dd498da5
; EDA_OUTPUT_DATA_FORMAT              ; Verilog Hdl                            ; --            ; --          ; eda_simulation ;
; EDA_SIMULATION_TOOL                 ; ModelSim (Verilog)                     ; <None>        ; --          ; --             ;
; EDA_TIME_SCALE                      ; 1 ps                                   ; --            ; --          ; eda_simulation ;
; MAX_CORE_JUNCTION_TEMP              ; 85                                     ; --            ; --          ; --             ;
; MIN_CORE_JUNCTION_TEMP              ; 0                                      ; --            ; --          ; --             ;
; NOMINAL_CORE_SUPPLY_VOLTAGE         ; 1.2V                                   ; --            ; --          ; --             ;
; PARTITION_COLOR                     ; -- (Not supported for targeted family) ; --            ; --          ; Top            ;
; PARTITION_FITTER_PRESERVATION_LEVEL ; -- (Not supported for targeted family) ; --            ; --          ; Top            ;
; PARTITION_NETLIST_TYPE              ; -- (Not supported for targeted family) ; --            ; --          ; Top            ;
; PROJECT_OUTPUT_DIRECTORY            ; output_files                           ; --            ; --          ; --             ;
+-------------------------------------+----------------------------------------+---------------+-------------+----------------+


<<<<<<< HEAD
+------------------------------------------------------------------------------------------------------------------------------------------+
; Flow Elapsed Time                                                                                                                        ;
+--------------------------------------+--------------+-------------------------+---------------------+------------------------------------+
; Module Name                          ; Elapsed Time ; Average Processors Used ; Peak Virtual Memory ; Total CPU Time (on all processors) ;
+--------------------------------------+--------------+-------------------------+---------------------+------------------------------------+
; Analysis & Synthesis                 ; 00:00:09     ; 1.0                     ; 4835 MB             ; 00:00:18                           ;
; Fitter                               ; 00:00:04     ; 1.1                     ; 5811 MB             ; 00:00:06                           ;
; Assembler                            ; 00:00:00     ; 1.0                     ; 4675 MB             ; 00:00:01                           ;
; Timing Analyzer                      ; 00:00:01     ; 1.0                     ; 4803 MB             ; 00:00:01                           ;
; EDA Netlist Writer                   ; 00:00:00     ; 1.0                     ; 4648 MB             ; 00:00:01                           ;
; Early Power Estimator File Generator ; 00:00:01     ; 1.0                     ; 4798 MB             ; 00:00:01                           ;
; Power Analyzer                       ; 00:00:01     ; 1.0                     ; 4851 MB             ; 00:00:01                           ;
; Power Analyzer                       ; 00:00:01     ; 1.0                     ; 4850 MB             ; 00:00:01                           ;
; Total                                ; 00:00:17     ; --                      ; --                  ; 00:00:30                           ;
+--------------------------------------+--------------+-------------------------+---------------------+------------------------------------+


+----------------------------------------------------------------------------------------------------+
; Flow OS Summary                                                                                    ;
+--------------------------------------+------------------+------------+------------+----------------+
; Module Name                          ; Machine Hostname ; OS Name    ; OS Version ; Processor type ;
+--------------------------------------+------------------+------------+------------+----------------+
; Analysis & Synthesis                 ; Pietro-PC        ; Windows 10 ; 10.0       ; x86_64         ;
; Fitter                               ; Pietro-PC        ; Windows 10 ; 10.0       ; x86_64         ;
; Assembler                            ; Pietro-PC        ; Windows 10 ; 10.0       ; x86_64         ;
; Timing Analyzer                      ; Pietro-PC        ; Windows 10 ; 10.0       ; x86_64         ;
; EDA Netlist Writer                   ; Pietro-PC        ; Windows 10 ; 10.0       ; x86_64         ;
; Early Power Estimator File Generator ; Pietro-PC        ; Windows 10 ; 10.0       ; x86_64         ;
; Power Analyzer                       ; Pietro-PC        ; Windows 10 ; 10.0       ; x86_64         ;
; Power Analyzer                       ; Pietro-PC        ; Windows 10 ; 10.0       ; x86_64         ;
+--------------------------------------+------------------+------------+------------+----------------+
=======
+--------------------------------------------------------------------------------------------------------------------------+
; Flow Elapsed Time                                                                                                        ;
+----------------------+--------------+-------------------------+---------------------+------------------------------------+
; Module Name          ; Elapsed Time ; Average Processors Used ; Peak Virtual Memory ; Total CPU Time (on all processors) ;
+----------------------+--------------+-------------------------+---------------------+------------------------------------+
; Analysis & Synthesis ; 00:00:16     ; 1.0                     ; 4826 MB             ; 00:00:20                           ;
; Fitter               ; 00:00:06     ; 1.0                     ; 5639 MB             ; 00:00:05                           ;
; Assembler            ; 00:00:01     ; 1.0                     ; 4692 MB             ; 00:00:01                           ;
; Timing Analyzer      ; 00:00:02     ; 1.0                     ; 4793 MB             ; 00:00:02                           ;
; EDA Netlist Writer   ; 00:00:01     ; 1.0                     ; 4661 MB             ; 00:00:01                           ;
; Total                ; 00:00:26     ; --                      ; --                  ; 00:00:29                           ;
+----------------------+--------------+-------------------------+---------------------+------------------------------------+


+------------------------------------------------------------------------------------+
; Flow OS Summary                                                                    ;
+----------------------+------------------+------------+------------+----------------+
; Module Name          ; Machine Hostname ; OS Name    ; OS Version ; Processor type ;
+----------------------+------------------+------------+------------+----------------+
; Analysis & Synthesis ; DESKTOP-DI288FG  ; Windows 10 ; 10.0       ; x86_64         ;
; Fitter               ; DESKTOP-DI288FG  ; Windows 10 ; 10.0       ; x86_64         ;
; Assembler            ; DESKTOP-DI288FG  ; Windows 10 ; 10.0       ; x86_64         ;
; Timing Analyzer      ; DESKTOP-DI288FG  ; Windows 10 ; 10.0       ; x86_64         ;
; EDA Netlist Writer   ; DESKTOP-DI288FG  ; Windows 10 ; 10.0       ; x86_64         ;
+----------------------+------------------+------------+------------+----------------+
>>>>>>> b1416af4e79fa980f87d88bd1b5cecc2dd498da5


------------
; Flow Log ;
------------
quartus_map --read_settings_files=on --write_settings_files=off IOmg996r -c IOmg996r
quartus_fit --read_settings_files=off --write_settings_files=off IOmg996r -c IOmg996r
quartus_asm --read_settings_files=off --write_settings_files=off IOmg996r -c IOmg996r
quartus_sta IOmg996r -c IOmg996r
quartus_eda --read_settings_files=off --write_settings_files=off IOmg996r -c IOmg996r
quartus_pow --read_settings_files=on --write_settings_files=off IOmg996r -c IOmg996r --estimate_power=off --output_epe=IOmg996r_early_pwr.csv
quartus_pow --read_settings_files=on --write_settings_files=off IOmg996r -c IOmg996r
quartus_pow --read_settings_files=on --write_settings_files=off IOmg996r -c IOmg996r



